ABR,Abr:,abreviation
ADJ,Adj:,adjective
ADV,Adv:,adverb
DET:ART,Det:,article
DET:POS,Det:,"possessive pronoun (ma, ta, ...)"
INT,Int:,interjection
KON,Conj:,conjunction
NAM,Nom:,proper name
NOM,Nom:,noun
NUM,Number:,numeral
PRO,Pro:,pronoun
PRO:DEM,Pro:Dem,demonstrative pronoun
PRO:IND,Pro:Indef,indefinite pronoun
PRO:PER,Pro:Pers,personal pronoun
PRO:POS,Pro:Pos,"possessive pronoun (mien, tien, ...)"
PRO:REL,Pro:Rel,relative pronoun
PRP,Pre:,preposition
PRP:det,Det:,"preposition plus article (au,du,aux,des)"
PUN,Punct:,punctuation
PUN:cit,,punctuation citation
SENT,,sentence tag
SYM,Symbole:,symbol
VER:cond,Ver:Cpre,verb conditional
VER:futu,Ver:Ifut,verb futur
VER:impe,Ver:Imp,verb imperative
VER:impf,Ver:Iimp,verb imperfect
VER:infi,Ver:Inf,verb infinitive
VER:pper,Ver:Ppas,verb past participle
VER:ppre,Ver:PPre,verb present participle
VER:pres,Ver:Ipre,verb present
VER:simp,Ver:IPSim,verb simple past
VER:subi,Ver:Simp,verb subjunctive imperfect
VER:subp,Ver:Spre,verb subjunctive present
